ID,ManufacturerName,ManufacturerDescription,ManufacturerLocationLatitude,ManufacturerLocationLongitude
0,Paris Creek,Paris creek specializes in ... ,34.524,-137.257
3,dssd,sdsd,123,123
4,reerereerrere,rere,124,125
