OzirisBatchID,OzirisProductID,BatchNumber,ProductName,ManufactureDate,ExpiryDate,RecalledDate,BatchLevelQuantity,ActualQuantity,TheoQuantity,SoldQuantity,DiscardedQuantity,Variance
"2456","879","111217","Cooler Bag 20 Litres","01/01/1970 09:30","01/01/1975 15:30","","","6","-10","10","0","16"
"2467","879","121217","Cooler Bag 20 Litres","01/01/1970 09:30","01/01/1975 15:30","","35","7","1","34","0","6"
"2477","879","141217","Cooler Bag 20 Litres","01/01/1970 09:30","01/01/1975 15:30","","","3","-29","29","0","32"
